INDEX VERSION 1.3+D:\Dropbox\ALEMOWE\Nos\.metadata\.plugins\org.eclipse.wst.jsdt.core\indexes
3513586656.index
3831718500.index
66610205.index
1070091696.index
2501520862.index
4059207714.index
4177410964.index
